<?xml version="1.0" encoding="utf-8"?>
<!-- Generator: Adobe Illustrator 23.0.1, SVG Export Plug-In . SVG Version: 6.00 Build 0)  -->
<svg version="1.1" xmlns="http://www.w3.org/2000/svg" xmlns:xlink="http://www.w3.org/1999/xlink" x="0px" y="0px"
	 viewBox="0 0 283.46 283.46" style="enable-background:new 0 0 283.46 283.46;" xml:space="preserve">
<style type="text/css">
	.st0{fill:url(#SVGID_1_);}
	.st1{fill:url(#SVGID_2_);}
	.st2{fill:url(#SVGID_3_);}
	.st3{fill:url(#SVGID_4_);}
	.st4{fill:url(#SVGID_5_);}
</style>
<g id="color">
	<g>
		<linearGradient id="SVGID_1_" gradientUnits="userSpaceOnUse" x1="125.8989" y1="124.9851" x2="201.772" y2="195.3559">
			<stop  offset="0" style="stop-color:#C81E88"/>
			<stop  offset="0.5139" style="stop-color:#6C297C"/>
			<stop  offset="0.6367" style="stop-color:#69498C"/>
			<stop  offset="0.7329" style="stop-color:#7A578F"/>
			<stop  offset="0.8914" style="stop-color:#6989B1"/>
			<stop  offset="1" style="stop-color:#7988A9"/>
		</linearGradient>
		<path class="st0" d="M123.92,136.03c-1.98,0-3.48,1.58-3.48,3.66c0,1.99,1.5,3.66,3.48,3.66h4.59c6.81,0,6.81,3.91,13.78,3.91
			c6.89,0,6.89-3.91,13.78-3.91h3.48c1.98,0,3.48-1.66,3.48-3.66c0-2.08-1.5-3.66-3.48-3.66h-3.48c-6.89,0-6.89,3.91-13.78,3.91
			h-0.55v2.41c-3.48-0.08-5.15-1.25-6.97-2.24v-9.81c1.98,1.08,3.64,2.33,7.52,2.33c6.89,0,6.89-3.91,13.78-3.91h0.71h2.77
			c4.59,0,8.47,2.99,9.9,7.31c0.4,1.08,0.63,2.33,0.63,3.66c0,1.25-0.24,2.49-0.63,3.66c-1.43,4.24-5.31,7.31-9.9,7.31h-1.35h-2.14
			c-6.89,0-6.89,3.91-13.78,3.91c-6.97,0-6.97-3.91-13.78-3.91h-4.59c-4.59,0-8.47-3.08-9.9-7.31c-0.4-1.16-0.63-2.41-0.63-3.66
			c0-1.33,0.24-2.58,0.63-3.66c1.43-4.32,5.31-7.31,9.9-7.31h3.33v7.31H123.92z"/>
		<linearGradient id="SVGID_2_" gradientUnits="userSpaceOnUse" x1="138.2674" y1="111.6495" x2="214.1405" y2="182.0203">
			<stop  offset="0" style="stop-color:#C81E88"/>
			<stop  offset="0.5139" style="stop-color:#6C297C"/>
			<stop  offset="0.6367" style="stop-color:#69498C"/>
			<stop  offset="0.7329" style="stop-color:#7A578F"/>
			<stop  offset="0.8914" style="stop-color:#6989B1"/>
			<stop  offset="1" style="stop-color:#7988A9"/>
		</linearGradient>
		<path class="st1" d="M129.26,118.69c5.43,0.59,5.99,3.91,12.47,3.91c6.97,0,6.97-4,14.09-4h14.25v7.48h-14.25
			c-7.13,0-7.13,4-14.09,4c-7.13,0-7.13-4-14.09-4h-1.78c-2.59,0-5.18,0-7.37,0h-5.1v-7.31l7.37-3.91l-7.37-4v-7.23h4.21h9.15
			c0.32,0,0.57,0,0.89,0c6.97,0,6.97,4,14.09,4c6.97,0,6.97-4,14.09-4h14.25v7.48h-14.25c-7.13,0-7.13,4-14.09,4
			c-6.56,0-7.05-3.4-12.63-3.91c1.24,0.65,2.42,1.46,3.42,2.43c0.76,0.74,1.41,1.59,1.99,2.47c0.32,0.49,0.63,0.98,0.92,1.49
			c0.06,0.11,0.62,1.26,0.69,1.25c-0.15,0.01-0.33-0.04-0.48-0.07c-1.88-0.32-3.75-0.58-5.66-0.22
			C129.77,118.59,129.46,118.71,129.26,118.69z"/>
		<linearGradient id="SVGID_3_" gradientUnits="userSpaceOnUse" x1="101.0947" y1="151.7288" x2="176.9677" y2="222.0996">
			<stop  offset="0" style="stop-color:#C81E88"/>
			<stop  offset="0.5139" style="stop-color:#6C297C"/>
			<stop  offset="0.6367" style="stop-color:#69498C"/>
			<stop  offset="0.7329" style="stop-color:#7A578F"/>
			<stop  offset="0.8914" style="stop-color:#6989B1"/>
			<stop  offset="1" style="stop-color:#7988A9"/>
		</linearGradient>
		<path class="st2" d="M129.26,193.25c5.43,0.59,5.99,3.91,12.47,3.91c6.97,0,6.97-4,14.09-4h14.25v7.48h-14.25
			c-7.13,0-7.13,4-14.09,4c-7.13,0-7.13-4-14.09-4h-1.78c-2.59,0-5.18,0-7.37,0h-5.1v-7.31l7.37-3.91l-7.37-4v-7.23h4.21h9.15
			c0.32,0,0.57,0,0.89,0c6.97,0,6.97,4,14.09,4c6.97,0,6.97-4,14.09-4h14.25v7.48h-14.25c-7.13,0-7.13,4-14.09,4
			c-6.56,0-7.05-3.4-12.63-3.91c1.24,0.65,2.42,1.46,3.42,2.43c0.76,0.74,1.41,1.59,1.99,2.47c0.32,0.49,0.63,0.98,0.92,1.49
			c0.06,0.11,0.62,1.26,0.69,1.25c-0.15,0.01-0.33-0.04-0.48-0.07c-1.88-0.32-3.75-0.58-5.66-0.22
			C129.77,193.15,129.46,193.27,129.26,193.25z"/>
		<linearGradient id="SVGID_4_" gradientUnits="userSpaceOnUse" x1="152.2102" y1="96.6166" x2="228.0832" y2="166.9874">
			<stop  offset="0" style="stop-color:#C81E88"/>
			<stop  offset="0.5139" style="stop-color:#6C297C"/>
			<stop  offset="0.6367" style="stop-color:#69498C"/>
			<stop  offset="0.7329" style="stop-color:#7A578F"/>
			<stop  offset="0.8914" style="stop-color:#6989B1"/>
			<stop  offset="1" style="stop-color:#7988A9"/>
		</linearGradient>
		<path class="st3" d="M128.04,78.83c6.89,0,6.89,4.04,13.93,4.04c6.97,0,6.97-4.04,14.01-4.04h14.09v7.4h-14.01v7.48h14.01v7.4
			h-2.48h-11.61c-7.05,0-7.05,3.95-14.01,3.95c-7.05,0-7.05-3.95-13.93-3.95h-4.08c-4.56,0-8.49-3.11-9.93-7.4
			c-0.4-1.18-0.64-2.44-0.64-3.7c0-1.34,0.24-2.61,0.64-3.78c1.44-4.29,5.36-7.4,9.93-7.4H128.04z M124.52,86.22
			c-1.92,0-3.52,1.68-3.52,3.78c0,2.02,1.6,3.7,3.52,3.7h3.52c6.89,0,6.89,3.95,13.93,3.95c3.6,0,5.28-1.09,7.13-2.1v-7.4
			c-1.84,1.01-3.52,2.1-7.13,2.1c-7.05,0-7.05-4.03-13.93-4.03H124.52z"/>
		<linearGradient id="SVGID_5_" gradientUnits="userSpaceOnUse" x1="115.0853" y1="136.6442" x2="190.9584" y2="207.015">
			<stop  offset="0" style="stop-color:#C81E88"/>
			<stop  offset="0.5139" style="stop-color:#6C297C"/>
			<stop  offset="0.6367" style="stop-color:#69498C"/>
			<stop  offset="0.7329" style="stop-color:#7A578F"/>
			<stop  offset="0.8914" style="stop-color:#6989B1"/>
			<stop  offset="1" style="stop-color:#7988A9"/>
		</linearGradient>
		<path class="st4" d="M128.04,153.29c6.89,0,6.89,4.04,13.93,4.04c6.97,0,6.97-4.04,14.01-4.04h14.09v7.4h-14.01v7.48h14.01v7.4
			h-2.48h-11.61c-7.05,0-7.05,3.95-14.01,3.95c-7.05,0-7.05-3.95-13.93-3.95h-4.08c-4.56,0-8.49-3.11-9.93-7.4
			c-0.4-1.18-0.64-2.44-0.64-3.7c0-1.34,0.24-2.61,0.64-3.78c1.44-4.29,5.36-7.4,9.93-7.4H128.04z M124.52,160.68
			c-1.92,0-3.52,1.68-3.52,3.78c0,2.02,1.6,3.7,3.52,3.7h3.52c6.89,0,6.89,3.95,13.93,3.95c3.6,0,5.28-1.09,7.13-2.1v-7.4
			c-1.84,1.01-3.52,2.1-7.13,2.1c-7.05,0-7.05-4.03-13.93-4.03H124.52z"/>
	</g>
</g>
<g id="bw_1_">
</g>
</svg>
